GDP per Cap visualization with gganimate and Maddison project - JOAORCB website
…
dados <- subset(maddison, 
                year >= as.Date("1800-01-01"))

dados_tibble <- as_tibble(dados)

dados_tibble

## # A tibble: 38,402 x 9
##    year       country_original gdp_pc country iso2c iso3c continent region
##    <date>     <chr>             <dbl> <chr>   <chr> <chr> <chr>     <chr> 
##  1 1800-01-01 Austria              NA Austria AT    AUT   Europe    Weste~
##  2 1801-01-01 Austria              NA Austria AT    AUT   Europe    Weste~
##  3 1802-01-01 Austria              NA Austria AT    AUT   Europe    Weste~
##  4 1803-01-01 Austria              NA Austria AT    AUT   Europe    Weste~
##  5 1804-01-01 Austria              NA Austria AT    AUT   Europe    Weste~
##  6 1805-01-01 Austria              NA Austria AT    AUT   Europe    Weste~
##  7 1806-01-01 Austria              NA Austria AT    AUT   Europe    Weste~
##  8 1807-01-01 Austria              NA Austria AT    AUT   Europe    Weste~
##  9 1808-01-01 Austria              NA Austria AT    AUT   Europe    Weste~
## 10 1809-01-01 Austria              NA Austria AT    AUT   Europe    Weste~
## # ... with 38,392 more rows, and 1 more variable: aggregate <lgl>
…
